{
    "new": {},
    "request": {
        "named": {
            "headers": {
                "Single": 1,
                "MULTI": 2,
                "Multi": 2,
                "multi": 2
            }
        },
        "positional": [ "GET", "http://localhost:1234/normalised-headers" ]
    }
}
